<svg width="960" height="2200" xmlns="http://www.w3.org/2000/svg" stroke="null" style="vector-effect: non-scaling-stroke;" preserveAspectRatio="xMidYMid meet">
 <metadata stroke="null" style="vector-effect: non-scaling-stroke;">Created by potrace 1.16, written by Peter Selinger 2001-2019</metadata>

 <g stroke="null">
  <title stroke="null">background</title>
  <rect stroke="null" fill="none" id="canvas_background" height="2202" width="962" y="-1" x="-1"/>
 </g>
 <g stroke="null">
  <title stroke="null">Layer 1</title>
  <g stroke="null" id="svg_1" fill="#000000" transform="translate(0,808) scale(0.10000000149011612,-0.10000000149011612) ">
   <path stroke="null" fill="#116466" id="svg_2" d="m5649.335413,7882.85762c-925.528093,-43.956904 -2050.580345,-213.640005 -3530.003748,-531.264083c-615.834107,-132.816021 -1527.654434,-348.8193 -2181.56567,-518.029746l-12.692376,-2.835929l-1.523085,-1381.097553l-1.01539,-1381.097553l4873.872571,0l4873.872571,0l0,764.755592l0,764.282938l-67.523443,96.89425c-204.601109,293.991334 -444.233177,581.3655 -696.557622,836.599134c-89.862026,90.749737 -312.740157,295.881954 -401.079097,369.14346c-596.541695,493.924347 -1228.114349,804.931257 -1887.102536,928.766835c-100.523622,18.906195 -225.924301,35.921771 -341.678775,47.265488c-93.923586,8.980443 -486.879562,13.234337 -627.003398,6.617168z"/>
  </g>
  <rect stroke="#000" id="svg_6" height="1973.406387" width="970.508595" y="394.927314" x="-2.578959" fill-opacity="null" stroke-opacity="null" stroke-width="0" fill="#116466"/>
 </g>
</svg>